%YAML 1.1
%TAG !u! tag:unity3d.com,2011:
--- !u!1 &6672243342054056010
GameObject:
  m_ObjectHideFlags: 0
  m_CorrespondingSourceObject: {fileID: 0}
  m_PrefabInstance: {fileID: 0}
  m_PrefabAsset: {fileID: 0}
  serializedVersion: 6
  m_Component:
  - component: {fileID: 6672243342054056008}
  - component: {fileID: 6672243342054056009}
  - component: {fileID: 6672243342054056023}
  m_Layer: 0
  m_Name: Building
  m_TagString: Untagged
  m_Icon: {fileID: 0}
  m_NavMeshLayer: 0
  m_StaticEditorFlags: 0
  m_IsActive: 1
--- !u!4 &6672243342054056008
Transform:
  m_ObjectHideFlags: 0
  m_CorrespondingSourceObject: {fileID: 0}
  m_PrefabInstance: {fileID: 0}
  m_PrefabAsset: {fileID: 0}
  m_GameObject: {fileID: 6672243342054056010}
  m_LocalRotation: {x: 0, y: 0, z: 0, w: 1}
  m_LocalPosition: {x: -15.6, y: 0, z: 0}
  m_LocalScale: {x: 1, y: 1, z: 1}
  m_Children: []
  m_Father: {fileID: 0}
  m_RootOrder: 0
  m_LocalEulerAnglesHint: {x: 0, y: 0, z: 0}
--- !u!114 &6672243342054056009
MonoBehaviour:
  m_ObjectHideFlags: 0
  m_CorrespondingSourceObject: {fileID: 0}
  m_PrefabInstance: {fileID: 0}
  m_PrefabAsset: {fileID: 0}
  m_GameObject: {fileID: 6672243342054056010}
  m_Enabled: 1
  m_EditorHideFlags: 0
  m_Script: {fileID: 11500000, guid: 3912f52142d7f324f8732cade913075e, type: 3}
  m_Name: 
  m_EditorClassIdentifier: 
  settings: {fileID: 11400000, guid: b5358ff1aa834d44f945a9ac73159eb3, type: 2}
--- !u!114 &6672243342054056023
MonoBehaviour:
  m_ObjectHideFlags: 0
  m_CorrespondingSourceObject: {fileID: 0}
  m_PrefabInstance: {fileID: 0}
  m_PrefabAsset: {fileID: 0}
  m_GameObject: {fileID: 6672243342054056010}
  m_Enabled: 1
  m_EditorHideFlags: 0
  m_Script: {fileID: 11500000, guid: fa9f63854a6d6774081a405fe58d242c, type: 3}
  m_Name: 
  m_EditorClassIdentifier: 
  floorPrefab: {fileID: 400002, guid: 586c4c43d2727bd45a7ef177530c10f8, type: 3}
  wallPrefab:
  - {fileID: 400000, guid: 793d1695843691741999ff55c131c8c2, type: 3}
  - {fileID: 400002, guid: 60fe073f04fa8a341ac208dad7a1eba8, type: 3}
  - {fileID: 400002, guid: d4ac3089910faab48960bebddaaeee03, type: 3}
  roofPrefab:
  - {fileID: 400002, guid: ddd3651d7cb1daa429fafc4589693410, type: 3}
  - {fileID: 400002, guid: f3fda4a879700cb4e96af72dc7721e71, type: 3}
  - {fileID: 400002, guid: 89e7ad342438f4a4dbc1e96d6f4eb7af, type: 3}
  - {fileID: 400002, guid: a818edceca6cf6a448b2474e1d64f0c2, type: 3}
